^C:\USERS\YHYBK\DESKTOP\C C++\2.SıNıF\OOP_PROJE_ROBOT\PIONEERROBOTAPI.CPP|C:\USERS\YHYBK\DESKTOP\C C++\2.SıNıF\OOP_PROJE_ROBOT\ROBOTAPITEST.CPP
C:\USERS\YHYBK\DESKTOP\C C++\2.SıNıF\OOP_PROJE_ROBOT\X64\DEBUG\VC142.PDB
C:\USERS\YHYBK\DESKTOP\C C++\2.SıNıF\OOP_PROJE_ROBOT\X64\DEBUG\VC142.IDB
C:\USERS\YHYBK\DESKTOP\C C++\2.SıNıF\OOP_PROJE_ROBOT\X64\DEBUG\ROBOTAPITEST.OBJ
^C:\USERS\YHYBK\DESKTOP\C C++\2.SıNıF\OOP_PROJE_ROBOT\PIONEERROBOTAPI.CPP
C:\USERS\YHYBK\DESKTOP\C C++\2.SıNıF\OOP_PROJE_ROBOT\X64\DEBUG\VC142.PDB
C:\USERS\YHYBK\DESKTOP\C C++\2.SıNıF\OOP_PROJE_ROBOT\X64\DEBUG\VC142.IDB
C:\USERS\YHYBK\DESKTOP\C C++\2.SıNıF\OOP_PROJE_ROBOT\X64\DEBUG\PIONEERROBOTAPI.OBJ
^C:\USERS\YHYBK\DESKTOP\C C++\2.SıNıF\OOP_PROJE_ROBOT\ROBOTAPITEST.CPP|C:\USERS\YHYBK\DESKTOP\C C++\2.SıNıF\OOP_PROJE_ROBOT\ROBOTOPERATORTEST.CPP
C:\USERS\YHYBK\DESKTOP\C C++\2.SıNıF\OOP_PROJE_ROBOT\X64\DEBUG\VC142.PDB
C:\USERS\YHYBK\DESKTOP\C C++\2.SıNıF\OOP_PROJE_ROBOT\X64\DEBUG\VC142.IDB
C:\USERS\YHYBK\DESKTOP\C C++\2.SıNıF\OOP_PROJE_ROBOT\X64\DEBUG\ROBOTAPITEST.OBJ
C:\USERS\YHYBK\DESKTOP\C C++\2.SıNıF\OOP_PROJE_ROBOT\X64\DEBUG\ROBOTOPERATORTEST.OBJ
^C:\USERS\YHYBK\DESKTOP\C C++\2.SıNıF\OOP_PROJE_ROBOT\ROBOTAPITEST.CPP
C:\USERS\YHYBK\DESKTOP\C C++\2.SıNıF\OOP_PROJE_ROBOT\X64\DEBUG\VC142.PDB
C:\USERS\YHYBK\DESKTOP\C C++\2.SıNıF\OOP_PROJE_ROBOT\X64\DEBUG\VC142.IDB
C:\USERS\YHYBK\DESKTOP\C C++\2.SıNıF\OOP_PROJE_ROBOT\X64\DEBUG\ROBOTAPITEST.OBJ
^C:\USERS\YHYBK\DESKTOP\C C++\2.SıNıF\OOP_PROJE_ROBOT\ROBOTOPERATORTEST.CPP
C:\USERS\YHYBK\DESKTOP\C C++\2.SıNıF\OOP_PROJE_ROBOT\X64\DEBUG\VC142.PDB
C:\USERS\YHYBK\DESKTOP\C C++\2.SıNıF\OOP_PROJE_ROBOT\X64\DEBUG\VC142.IDB
C:\USERS\YHYBK\DESKTOP\C C++\2.SıNıF\OOP_PROJE_ROBOT\X64\DEBUG\ROBOTOPERATORTEST.OBJ
^C:\USERS\YHYBK\DESKTOP\OOP1\OOP1_FINAL_PROJECT\OOP_PROJE_ROBOT\ROBOTAPITEST.CPP
C:\USERS\YHYBK\DESKTOP\OOP1\OOP1_FINAL_PROJECT\OOP_PROJE_ROBOT\X64\DEBUG\VC142.PDB
C:\USERS\YHYBK\DESKTOP\OOP1\OOP1_FINAL_PROJECT\OOP_PROJE_ROBOT\X64\DEBUG\VC142.IDB
C:\USERS\YHYBK\DESKTOP\OOP1\OOP1_FINAL_PROJECT\OOP_PROJE_ROBOT\X64\DEBUG\ROBOTAPITEST.OBJ
